#TAG,NAME,SYSTEMD,PURPOSE
,xorg-server,,"Graphical server."
,xorg-xwininfo,,"Command-line utility to print information about windows on an X server."
,xorg-xinit,,"X.Org initialisation program."
,ttf-linux-libertine,,"Serif (Libertine) and Sans Serif (Biolinum) OpenType fonts with large Unicode coverage."
,xorg-xprop,,"Property displayer for X."
,dosfstools,,"DOS filesystem utilities."
,libnotify,,"Library for sending desktop notifications."
,dunst,,
,exfat-utils,,
,sxiv,,
,xwallpaper,,
,ffmpeg,,
,gnome-keyring,,
,neovim,,
,mpd,,
,mpc,,
,mpv,,
,man-db,,
,ncmpcpp,,
,newsboat,,
A,brave-bin,,
,noto-fonts-emoji,,
,ntfs-3g,,
,pulseaudio-alsa,,
,pulsemixer,,
,pamixer,,
,maim,,
,abook,,
,unclutter,,
,unrar,,
,unzip,,
,lynx,,
,xclip,,
,xdotool,,
,xorg-xdpyinfo,,
,youtube-dl,,
,zathura,,
,zathura-pdf-mupdf,,
,poppler,,
,mediainfo,,
,atool,,
,fzf,,
,highlight,,
,xorg-xbacklight,,
A,zsh-fast-syntax-highlighting,,
A,task-spooler,,
A,simple-mtpfs,,
A,mutt-wizard-git,,
,slock,,
,reflector,reflector,
,networkmanager,NetworkManager,
,emacs-nox,,
,dash,,
,bluez,bluetooth,
,bluez-utils,
,bat,,
,lsd,,
,acpid,acpid,
,sagemath,,
A,zramswap,zramswap,
,starship,,
A,dashbinsh,,
A,nerd-fonts-fira-code,,
,texlive-most,,
A,zoom,,
,pass,,
,lxappearance,,
,gtk-theme-numix-solarized,,
,opendoas,,
